<?xml version="1.0" encoding="UTF-8"?>
<CustomTab xmlns="http://soap.sforce.com/2006/04/metadata">
    <label>Pipeline Manager</label>
    <mobileReady>false</mobileReady>
    <motif>Custom55: Books</motif>
    <page>SL_PipelineManager</page>
</CustomTab>
